%YAML 1.1
%TAG !u! tag:unity3d.com,2011:
--- !u!1045 &1
EditorBuildSettings:
  m_ObjectHideFlags: 0
  serializedVersion: 2
  m_Scenes:
  - enabled: 1
    path: Assets/StartMenu/StartMenu.unity
    guid: 2242dcc51c566634a992d136b8bb7c8f
  - enabled: 1
    path: Assets/Kraken/KrakenCutscene/KrakenCutscene.unity
    guid: ec0f0890586948a4fa473a9679938b4e
  - enabled: 1
    path: Assets/Kraken/KrakenMinigame/KrakenMinigame.unity
    guid: 206cdc40f400f4c43bcf02f8e18d60e5
  - enabled: 1
    path: Assets/Kraken/PostKrakenCutscene/PostKrakenCutscene.unity
    guid: 94d99c53113170c4cb2cd45dfc31b147
  - enabled: 1
    path: Assets/Gold Digger/Cutscene/PreGoldCutScene.unity
    guid: d830df90b8d0bf44d85222cd8427dd53
  - enabled: 1
    path: Assets/Gold Digger/Scenes/GoldDiggerScene.unity
    guid: fea0e40934e64ee4f81d4ecac6ae864a
  - enabled: 1
    path: Assets/BossFight/CutScene/PreBossCutscene.unity
    guid: 031e0296e2e13224c85ff1a67160ee92
  - enabled: 1
    path: Assets/BossFight/BossFight.unity
    guid: 9806f37344ee1c547889c65f18832c70
  - enabled: 1
    path: Assets/New Scene.unity
    guid: ccbbb4699fb1ffe40b8c0bf5a158d1cb
  m_configObjects: {}
